R Notebook
…
Think a bit on what these summaries mean. Use the space below to add some more relevant non-visual exploratory information you think helps you understand this data:

# Insert your code here, create more chunks as necessary
inc %>% group_by(State) %>% summarise(Count= n(),mean_rev = mean(Revenue), sd_rev = sd(Revenue), R_SD_ALL= sd(Revenue)/sd(inc$Revenue)) %>% arrange(.,desc(R_SD_ALL))

## Warning: `...` is not empty.
## 
## We detected these problematic arguments:
## * `needs_dots`
## 
## These dots only exist to allow future extensions and should be empty.
## Did you misspecify an argument?

## # A tibble: 52 x 5
##    State Count   mean_rev     sd_rev R_SD_ALL
##    <fct> <int>      <dbl>      <dbl>    <dbl>
##  1 IL      273 121773993. 702149071.    2.92 
##  2 ID       17 231523529. 686093884.    2.85 
##  3 WI       79  92362025. 529764518.    2.20 
##  4 IA       28 123142857. 525683101.    2.19 
##  5 NY      311  58715113. 341922076.    1.42 
##  6 NC      137  67580292. 312739773.    1.30 
##  7 DC       43  76344186. 273303810.    1.14 
##  8 OH      186  68745161. 261035147.    1.09 
##  9 AK        2 171500000  235890822.    0.981
## 10 MN       88  57256818. 226032974.    0.940
## # ... with 42 more rows
…
