…
```r
head(EMP_DAT_CAT,130)
```

```
## # A tibble: 130 x 24
##    LineCode Description GeoName `1998` `1999` `2000` `2001` `2002` `2003` `2004`
##       <dbl> <chr>       <chr>   <chr>  <chr>  <chr>  <chr>  <chr>  <chr>  <chr> 
##  1      101 Forestry a~ United~ 168100 168700 153300 148400 144600 133800 140100
##  2      101 Forestry a~ Alabama 10193  9637   8852   (D)    8347   7929   8222  
##  3      101 Forestry a~ Alaska  1397   1455   1307   986    858    800    (D)   
##  4      101 Forestry a~ Arizona 598    (T)    (T)    (D)    (D)    (D)    363   
##  5      101 Forestry a~ Arkans~ 7248   7266   6662   6087   (D)    5716   (D)   
##  6      101 Forestry a~ Califo~ 7200   7273   6208   6139   5917   5340   5545  
##  7      101 Forestry a~ Colora~ 698    727    693    637    (D)    (D)    (D)   
##  8      101 Forestry a~ Connec~ (T)    531    452    433    431    384    419   
##  9      101 Forestry a~ Delawa~ (T)    (T)    (T)    56     (D)    29     (D)   
## 10      101 Forestry a~ Distri~ (T)    (T)    (T)    (D)    (D)    5      5     
## # ... with 120 more rows, and 14 more variables: `2005` <chr>, `2006` <chr>,
## #   `2007` <chr>, `2008` <chr>, `2009` <chr>, `2010` <chr>, `2011` <chr>,
## #   `2012` <chr>, `2013` <chr>, `2014` <chr>, `2015` <chr>, `2016` <chr>,
## #   `2017` <chr>, `2018` <chr>
```
…
